…
So let’s try it out on the dataset! First we import the data with readxl and use stringr to remove the percentage signs from the variable names. I also decided to omit NA’s, which I think is why my numbers are slightly different from those in the article. Oh well shrug

data <- readxl::read_xlsx("~/Code/tidy_tuesday/tidy_tuesday_week_3/global_mortality.xlsx") %>% 
  rename_all(funs(stringr::str_remove_all(., "[(%)]"))) %>% 
  na.omit() 
data
## # A tibble: 4,524 x 35
##    country country_code  year `Cardiovascular… `Cancers ` `Respiratory di…
##    <chr>   <chr>        <dbl>            <dbl>      <dbl>            <dbl>
##  1 Afghan… AFG          1990.             17.6       4.03             2.11
##  2 Afghan… AFG          1991.             17.8       4.05             2.13
##  3 Afghan… AFG          1992.             18.4       4.17             2.21
##  4 Afghan… AFG          1994.             19.1       4.26             2.31
##  5 Afghan… AFG          1995.             19.9       4.39             2.41
##  6 Afghan… AFG          1996.             20.4       4.48             2.49
##  7 Afghan… AFG          1997.             20.4       4.45             2.49
##  8 Afghan… AFG          1998.             19.6       4.26             2.41
##  9 Afghan… AFG          1999.             21.1       4.57             2.60
## 10 Afghan… AFG          2000.             21.4       4.64             2.64
## # ... with 4,514 more rows, and 29 more variables: `Diabetes ` <dbl>,
## #   `Dementia ` <dbl>, `Lower respiratory infections ` <dbl>, `Neonatal
## #   deaths ` <dbl>, `Diarrheal diseases ` <dbl>, `Road accidents ` <dbl>,
## #   `Liver disease ` <dbl>, `Tuberculosis ` <dbl>, `Kidney disease
## #   ` <dbl>, `Digestive diseases ` <dbl>, `HIV/AIDS ` <dbl>, `Suicide
## #   ` <dbl>, `Malaria ` <dbl>, `Homicide ` <dbl>, `Nutritional
## #   deficiencies ` <dbl>, `Meningitis ` <dbl>, `Protein-energy
## #   malnutrition ` <dbl>, `Drowning ` <dbl>, `Maternal deaths ` <dbl>,
## #   `Parkinson disease ` <dbl>, `Alcohol disorders ` <dbl>, `Intestinal
…
