PCA for RNASeq samples
…
Beginning to analyze mRNA data

Once of the first parts of my journey into bioinformatics with R was analyzing RNASeq and microarray data. One of the first things I needed to do is Principal Component Analysis (PCA) on all samples and all genes from an already-aligned RNASeq experiment, so I decided to put together a function that would analyze and visualize the data for me, regardless of how many samples are in the experiment. I also wanted to use a tidy data paradigm as much as possible, but it is true that for many bioinformatics applications tidy data is rather cumbersome. Thus, after many hours of trial and error, I decided that all tidy data behavior for my projects will be embedded in my functions but the data will remain in standard data frames and matrix formats outside of them. Let’s go!

The experiment

In my first experiment, I had to analyze the effects of a Dox-inducible shRNA system against the NLGN4X gene in the SUM159 cell line. There are two shRNAs, so that means I have 4 samples: 2 controls and 2 dox-activated shRNA samples, and RNASeq alignment was done for me

Importing and Processing Data

I may write a post another day on how alignment works and how to imported the aligned counts, but for now that’s already been done. We need two kinds of data frames. One of them has genes as rows and samples as columns. I named it countsData and it looks like this:

as_data_frame(countsData)
## # A tibble: 18,257 x 4
##    SUM159.shNLGN4X.1… SUM159.shNLGN4X.… SUM159.shNLGN4X.… SUM159.shNLGN4X…
##  *              <int>             <int>             <int>            <int>
##  1                335               330               390              580
##  2                105                65                60               41
##  3                  5                 6                 2               10
##  4                 23                21                22               13
##  5                 15                 5                 9              277
##  6                  6                 7                 4                5
##  7                  3                 0                 6                3
##  8               2960              1658              2612             2192
##  9               5215              5231              3900             2482
## 10               8588              6479              7707             5115
## # ... with 18,247 more rows
…
